<?xml version="1.0" encoding="UTF-8"?>
<!--
Copyright (C) 2002-2012 OpenClovis Solutions Inc.  All Rights Reserved.

This file is available  under  a  commercial  license  from  the
copyright  holder or the GNU General Public License Version 2.0.

The source code for  this program is not published  or otherwise 
divested of  its trade secrets, irrespective  of  what  has been 
deposited with the U.S. Copyright office.

This program is distributed in the  hope that it will be useful,
but WITHOUT ANY WARRANTY; without even the implied  warranty  of 
MERCHANTABILITY or FITNESS FOR A PARTICULAR PURPOSE. See the GNU 
General Public License for more details.

For more  information,  see the  file COPYING provided with this
material.
-->
<IDLSpecs name="LogIDL">
  <Service name="Log">
    <Comp name="log"/>
    <Include name="clLogApi.h"/>
    <Include name="clIocApi.h"/>
    <Enum name="ClLogFileFullActionT">
      <EnumMember name="CL_LOG_FILE_FULL_ACTION_WRAP"/>
      <EnumMember name="CL_LOG_FILE_FULL_ACTION_HALT"/>
      <EnumMember name="CL_LOG_FILE_FULL_ACTION_ROTATE"/>
    </Enum>
    <Struct name="ClWaterMarkT">
        <DataMember name="lowLimit" type="ClUint32T"/>
        <DataMember name="highLimit" type="ClUint32T"/>
     </Struct>
    <Struct name="ClLogStreamAttrIDLT" defNeed="yes">
        <DataMember name="fileName" type="ClStringT"/>
        <DataMember name="fileLocation" type="ClStringT"/>
        <DataMember name="fileUnitSize" type="ClUint32T"/>
        <DataMember name="recordSize" type="ClUint32T"/>
        <DataMember name="haProperty" type="ClUint16T"/>
        <DataMember name="fileFullAction" type="ClLogFileFullActionT"/>
        <DataMember name="maxFilesRotated" type="ClUint32T"/>
        <DataMember name="flushFreq" type="ClUint32T"/>
        <DataMember name="flushInterval" type="ClInt64T"/>
        <DataMember name="waterMark" type="ClWaterMarkT"/>
        <DataMember name="syslog" type="ClUint16T"/>
     </Struct>
    <Struct name="ClLogStreamOwnerDataIDLT" defNeed="yes">
        <DataMember name="streamId" type="ClUint16T"/>
        <DataMember name="streamMcastAddr" type="ClUint64T"/>
        <DataMember name="dsId" type="ClUint32T"/>
        <DataMember name="isNewStream" type="ClUint16T"/>
        <DataMember name="openCnt" type="ClUint32T"/>
        <DataMember name="ackerCnt" type="ClUint32T"/>
        <DataMember name="nonAckerCnt" type="ClUint32T"/>
        <DataMember name="streamAttr" type="ClLogStreamAttrIDLT"/>
     </Struct>
    <Struct name="ClLogStreamMapT">
        <DataMember name="streamName" type="ClNameT"/>
        <DataMember name="streamScope" type="ClUint32T"/>
        <DataMember name="nodeName" type="ClNameT"/>
        <DataMember name="streamId" type="ClUint16T"/>
     </Struct>
    <Struct name="ClLogStreamInfoIDLT" defNeed="yes">
        <DataMember name="streamName" type="ClNameT"/>
        <DataMember name="streamScope" type="ClUint32T"/>
        <DataMember name="nodeName" type="ClNameT"/>
        <DataMember name="streamId" type="ClUint16T"/>
        <DataMember name="streamAttr" type="ClLogStreamAttrIDLT"/>
     </Struct>
    <Struct name="ClLogCompDataT" defNeed="yes">
        <DataMember name="compName" type="ClNameT"/>
        <DataMember name="clientId" type="ClUint32T"/>
     </Struct>
    <Struct name="ClLogFilterT">
        <DataMember name="severityFilter" type="ClUint16T"/>
        <DataMember name="msgIdSetLength" type="ClUint16T"/>
        <DataMember name="pMsgIdSet" type="ClUint8T" pointer="Single"
        lengthVar="msgIdSetLength"/>
        <DataMember name="compIdSetLength" type="ClUint16T"/>
        <DataMember name="pCompIdSet" type="ClUint8T" pointer="Single"
        lengthVar="compIdSetLength"/>
     </Struct>
    <Struct name="ClLogCompKeyT" defNeed="no" include="server/clLogStreamOwner.h">
        <DataMember name="nodeAddr" type="ClUint32T"/>
        <DataMember name="compId" type="ClUint32T"/>
        <DataMember name="hash"   type="ClUint32T"/>
     </Struct>
    <Struct name="ClLogSOCompDataT" defNeed="no" include="server/clLogStreamOwner.h">
        <DataMember name="refCount" type="ClUint32T"/>
        <DataMember name="ackerCnt" type="ClUint32T"/>
        <DataMember name="nonAckerCnt" type="ClUint32T"/>
     </Struct>

	<Port name="Port" ID="CL_EO_NATIVE_COMPONENT_TABLE_ID">
            <Group name="Master">
	      <Operation name="clLogMasterAttrVerifyNGet" type="async">
                    <Argument ParameterType="CL_IN" name="pStreamAttr"
                    type="ClLogStreamAttrIDLT" pointer="Single"/>
                    <Argument ParameterType="CL_IN" name="pStreamName"
                    type="ClNameT" pointer="Single"/>
                    <Argument ParameterType="CL_IN" name="pStreamScope"
                    type="ClUint32T" pointer="Single"/>
                    <Argument ParameterType="CL_IN" name="pStreamScopeNode"
                    type="ClNameT" pointer="Single"/>
                    <Argument ParameterType="CL_INOUT" name="pStreamId"  type="ClUint16T" pointer="Single"/>
                    <Argument ParameterType="CL_OUT" name="pStreamMcastAddr"  type="ClUint64T" pointer="Single"/>
                </Operation>	
	      <Operation name="clLogMasterStreamCloseNotify" type="async">
                    <Argument ParameterType="CL_IN" name="pFileName"
                    type="ClStringT" pointer="Single"/>
                    <Argument ParameterType="CL_IN" name="pFileLocation"
                    type="ClStringT" pointer="Single"/>
                    <Argument ParameterType="CL_IN" name="pStreamName" 
                    type="ClNameT" pointer="Single"/>
                    <Argument ParameterType="CL_IN" name="pStreamScope"
                    type="ClUint32T"/>
                    <Argument ParameterType="CL_IN" name="pStreamScopeNode" 
                    type="ClNameT" pointer="Single"/>
                </Operation>	
	      <Operation name="clLogMasterStreamListGet">
                    <Argument ParameterType="CL_OUT" name="pNumStreams"
                    type="ClUint32T" pointer="Single"/>
                    <Argument ParameterType="CL_OUT" name="pBuffLen"
                    type="ClUint32T" pointer="Single"/>
                    <Argument ParameterType="CL_OUT" name="pBuffer" 
                    type="ClUint8T" pointer="Double" lengthVar="pBuffLen"/>
                </Operation>	
	      <Operation name="clLogMasterCompIdChkNGet" type="sync">
                    <Argument ParameterType="CL_IN" name="pCompName"
                    type="ClNameT" pointer="Single"/>
                    <Argument ParameterType="CL_INOUT" name="pClientId"
                    type="ClUint32T" pointer="Single"/>
                </Operation>	
	      <Operation name="clLogMasterCompListGet">
                    <Argument ParameterType="CL_OUT" name="pNumStreams"
                    type="ClUint32T" pointer="Single"/>
                    <Argument ParameterType="CL_OUT" name="pBuffLen"
                    type="ClUint32T" pointer="Single"/>
                    <Argument ParameterType="CL_OUT" name="pBuffer" 
                    type="ClUint8T" pointer="Double" lengthVar="pBuffLen"/>
                </Operation>	
	      <Operation name="clLogMasterCompListNotify" type="async">
                    <Argument ParameterType="CL_IN" name="pNumEntries"
                    type="ClUint32T"/>
                    <Argument ParameterType="CL_IN" name="pCompData"
                    type="ClLogCompDataT" pointer="Single" lengthVar="pNumEntries"/>
                </Operation>	
            </Group>
            <Group name="StreamOwner">
	      <Operation name="clLogStreamOwnerStreamOpen" type="async">
                    <Argument ParameterType="CL_IN" name="logOpenFlags" type="ClUint8T"/>
                    <Argument ParameterType="CL_IN" name="nodeAddr" type="ClUint32T"/>
                    <Argument ParameterType="CL_IN" name="pStreamName" type="ClNameT" pointer="Single"/>
                    <Argument ParameterType="CL_IN" name="pStreamScope"
                    type="ClUint32T" pointer="Single"/>
                    <Argument ParameterType="CL_IN" name="pStreamScopeNode" type="ClNameT" pointer="Single"/>
                    <Argument ParameterType="CL_INOUT" name="compId"  type="ClUint32T" pointer="Single"/>
                    <Argument ParameterType="CL_INOUT" name="pStreamAttr"
                              type="ClLogStreamAttrIDLT" pointer="Single"/>
                    <Argument ParameterType="CL_OUT" name="pStreamMastAddr" type="ClUint64T" pointer="Single"/>
                    <Argument ParameterType="CL_OUT" name="pStreamFilter" type="ClLogFilterT" pointer="Single"/>
                    <Argument ParameterType="CL_OUT" name="pAckerCnt"
                    type="ClUint32T" pointer="Single"/>
                    <Argument ParameterType="CL_OUT" name="pNonAckerCnt"
                    type="ClUint32T" pointer="Single"/>
                    <Argument ParameterType="CL_INOUT" name="pStreamId" type="ClUint16T" pointer="Single"/>
              </Operation>
	      <Operation name="clLogStreamOwnerStreamClose" type="async">
                    <Argument ParameterType="CL_IN" name="pStreamName" type="ClNameT" pointer="Single"/>
                    <Argument ParameterType="CL_IN" name="pStreamScope" type="ClUint32T"/>
                    <Argument ParameterType="CL_IN" name="pStreamScopeNode" type="ClNameT" pointer="Single"/>
                    <Argument ParameterType="CL_IN" name="nodeAddress" type="ClUint32T"/>
                    <Argument ParameterType="CL_IN" name="compId"  type="ClUint32T"/>
              </Operation>
	      <Operation name="clLogStreamOwnerFilterSet" type="async">
                    <Argument ParameterType="CL_IN" name="pStreamName" type="ClNameT" pointer="Single"/>
                    <Argument ParameterType="CL_IN" name="pStreamScope" type="ClUint32T"/>
                    <Argument ParameterType="CL_IN" name="pStreamScopeNode" type="ClNameT" pointer="Single"/>
                    <Argument ParameterType="CL_IN" name="filterFlags"
                    type="ClUint8T"/>
                    <Argument ParameterType="CL_IN" name="pFilter" type="ClLogFilterT" pointer="Single"/>
              </Operation>
	      <Operation name="clLogStreamOwnerHandlerRegister">
                    <Argument ParameterType="CL_IN" name="pStreamName" type="ClNameT" pointer="Single"/>
                    <Argument ParameterType="CL_IN" name="pStreamScope" type="ClUint32T"/>
                    <Argument ParameterType="CL_IN" name="pStreamScopeNode" type="ClNameT" pointer="Single"/>
                    <Argument ParameterType="CL_IN" name="handlerFlags" type="ClUint8T"/>
                    <Argument ParameterType="CL_IN" name="localAddr" type="ClUint32T"/>
                    <Argument ParameterType="CL_IN" name="compId" type="ClUint32T"/>
              </Operation>
	      <Operation name="clLogStreamOwnerStreamMcastGet" type="sync">
                    <Argument ParameterType="CL_IN" name="pStreamName" type="ClNameT" pointer="Single"/>
                    <Argument ParameterType="CL_IN" name="pStreamScope" type="ClUint32T"/>
                    <Argument ParameterType="CL_IN" name="pStreamScopeNode" type="ClNameT" pointer="Single"/>
                    <Argument ParameterType="CL_OUT" name="mcastAddr" type="ClUint64T" pointer="Single"/>
              </Operation>
	      <Operation name="clLogStreamOwnerHandlerDeregister">
                    <Argument ParameterType="CL_IN" name="pStreamName" type="ClNameT" pointer="Single"/>
                    <Argument ParameterType="CL_IN" name="pStreamScope" type="ClUint32T"/>
                    <Argument ParameterType="CL_IN" name="pStreamScopeNode" type="ClNameT" pointer="Single"/>
                    <Argument ParameterType="CL_IN" name="handlerFlags" type="ClUint8T"/>
                    <Argument ParameterType="CL_IN" name="localAddr" type="ClUint32T"/>
                    <Argument ParameterType="CL_IN" name="compId" type="ClUint32T"/>
              </Operation>
	      <Operation name="clLogStreamOwnerFilterGet">
                    <Argument ParameterType="CL_IN" name="pStreamName" type="ClNameT" pointer="Single"/>
                    <Argument ParameterType="CL_IN" name="pStreamScope" type="ClUint32T"/>
                    <Argument ParameterType="CL_IN" name="pStreamScopeNode" type="ClNameT" pointer="Single"/>
                    <Argument ParameterType="CL_OUT" name="pFilter" type="ClLogFilterT" pointer="Single"/>
              </Operation>
            </Group>
            <Group name="Svr">
              <Operation name="clLogSvrStreamOpen">
                    <Argument ParameterType="CL_IN"   name="streamName"
                        type="ClNameT" pointer="Single"/>
                    <Argument ParameterType="CL_IN"   name="streamScope"
                        type="ClUint32T"/>
                    <Argument ParameterType="CL_IN"   name="streamScopeNode"
                        type="ClNameT" pointer="Single"/>
                    <Argument ParameterType="CL_IN"   name="pStreamAttr"
                        type="ClLogStreamAttrIDLT" pointer="Single"/>
                    <Argument ParameterType="CL_IN"   name="streamOpenFlags"
                        type="ClUint8T"/>
                    <Argument ParameterType="CL_IN"   name="compId"
                        type="ClUint32T"/>
                    <Argument ParameterType="CL_IN"   name="portId"
                        type="ClUint32T"/>
                    <Argument ParameterType="CL_OUT"  name="pShmName"
                        type="ClStringT" pointer="Single"/>
                    <Argument ParameterType="CL_OUT"  name="pShmSize"
                        type="ClUint32T" pointer="Single"/>
              </Operation>
              <Operation name="clLogSvrStreamClose">
                    <Argument ParameterType="CL_IN"   name="streamName"
                        type="ClNameT" pointer="Single"/>
                    <Argument ParameterType="CL_IN"   name="streamScope"
                        type="ClUint32T" />
                    <Argument ParameterType="CL_IN"   name="streamScopeNode"
                        type="ClNameT" pointer="Single"/>
                    <Argument ParameterType="CL_IN"  name="compId"
                        type="ClUint32T"/>
              </Operation>
	      <Operation name="clLogSvrFilterSet" type="async">
                    <Argument ParameterType="CL_IN" name="pStreamName"  type="ClNameT" pointer="Single"/>
                    <Argument ParameterType="CL_IN" name="streamScope" type="ClUint32T"/>
                    <Argument ParameterType="CL_IN" name="pStreamScopeNode" type="ClNameT" pointer="Single"/>
                    <Argument ParameterType="CL_IN" name="pFilter" type="ClLogFilterT" pointer="Single"/>
              </Operation>	
	      <Operation name="clLogSvrStreamHandleFlagsUpdate" type="async">
                    <Argument ParameterType="CL_IN" name="pStreamName"  type="ClNameT" pointer="Single"/>
                    <Argument ParameterType="CL_IN" name="streamScope" type="ClUint32T"/>
                    <Argument ParameterType="CL_IN" name="pStreamScopeNode" type="ClNameT" pointer="Single"/>
                    <Argument ParameterType="CL_IN" name="handleFlags"
                    type="ClUint8T"/>
                    <Argument ParameterType="CL_IN" name="setFlags"
                    type="ClUint16T"/>
              </Operation>	
              <Operation name="clLogHandlerSvrAckSend" type="async">
                    <Argument ParameterType="CL_IN" name="pStreamName"  type="ClNameT" pointer="Single"/>
                    <Argument ParameterType="CL_IN" name="pNodeName"  type="ClNameT" pointer="Single"/>
                    <Argument ParameterType="CL_IN"   name="streamScope" type="ClUint32T"/>
                    <Argument ParameterType="CL_IN"   name="sequenceNumber" type="ClUint32T"/>
                    <Argument ParameterType="CL_IN"   name="numRecords" type="ClUint32T" />
                    <Argument ParameterType="CL_IN"   name="flushCookie" type="ClHandleT" />
              </Operation>
            </Group>
            <Group name="FileHdlr">
              <Operation name="clLogFileHdlrFileOpen">
                    <Argument ParameterType="CL_IN"   name="fileName"
                        type="ClStringT" pointer="Single"/>
                    <Argument ParameterType="CL_IN"   name="fileLocation"
                        type="ClStringT" pointer="Single"/>
                    <Argument ParameterType="CL_OUT" name="operatingLvl" type="ClUint32T" 
                        pointer="Single"/>
              </Operation>
              <Operation name="clLogFileHdlrFileRecordsGet">
                    <Argument ParameterType="CL_IN"   name="fileName"
                        type="ClStringT" pointer="Single"/>
                    <Argument ParameterType="CL_IN"   name="fileLocation"
                        type="ClStringT" pointer="Single"/>
                    <Argument ParameterType="CL_IN" name="isDelete" type="ClUint16T"/>
                    <Argument ParameterType="CL_INOUT" name="pStartRec"
                    type="ClUint64T" pointer="Single"/>
                    <Argument ParameterType="CL_INOUT" name="version" type="ClUint32T" 
                        pointer="Single"/>
                    <Argument ParameterType="CL_INOUT"  name="pNumRecords"
                        type="ClUint32T" pointer="Single"/>
                    <Argument ParameterType="CL_OUT"  name="pBuffeLen"
                        type="ClUint32T" pointer="Single"/>
                    <Argument ParameterType="CL_OUT"  name="pLogRecords"
                        type="ClUint8T" pointer="Double"
                        lengthVar="pBuffeLen"/>
              </Operation>
              <Operation name="clLogFileHdlrFileMetaDataGet">
                    <Argument ParameterType="CL_IN"   name="fileName"
                        type="ClStringT" pointer="Single"/>
                    <Argument ParameterType="CL_IN"   name="fileLocation"
                        type="ClStringT" pointer="Single"/>
                    <Argument ParameterType="CL_INOUT" name="version" type="ClUint32T" 
                        pointer="Single"/>
                    <Argument ParameterType="CL_OUT"  name="pStreamAttr"
                        type="ClLogStreamAttrIDLT" pointer="Single"/>
                    <Argument ParameterType="CL_OUT"  name="pNumStreams"
                        type="ClUint32T" pointer="Single"/>
                    <Argument ParameterType="CL_OUT"  name="pLogStreams"
                        type="ClLogStreamMapT" pointer="Double"
                        lengthVar="pNumStreams"/>
              </Operation>
            </Group>
        </Port>            
  </Service>
  <Service name="App">
    <Comp name="log"/>
    <Struct name="ClLogFilterT">
        <DataMember name="severityFilter" type="ClUint16T"/>
        <DataMember name="msgIdSetLength" type="ClUint16T"/>
        <DataMember name="pMsgIdSet" type="ClUint8T" pointer="Single"
        lengthVar="msgIdSetLength"/>
        <DataMember name="compIdSetLength" type="ClUint16T"/>
        <DataMember name="pCompIdSet" type="ClUint8T" pointer="Single"
        lengthVar="compIdSetLength"/>
     </Struct>
	<Port name="clientPort" ID="CL_LOG_CLIENT_TABLE_ID">
            <Group name="client">
	      <Operation name="clLogClientFilterSetNotify" type="async">
                    <Argument ParameterType="CL_IN" name="streamName" 
                    type="ClNameT" />
                    <Argument ParameterType="CL_IN" name="streamScope" 
                    type="ClUint32T" />
                    <Argument ParameterType="CL_IN" name="streamScopeNode" 
                    type="ClNameT" />
                    <Argument ParameterType="CL_IN" name="filter"
                    type="ClLogFilterT" />
              </Operation>	
	      <Operation name="clLogClntFileHdlrDataReceive" type="async">
                    <Argument ParameterType="CL_IN" name="streamMcaseAddr"
                    type="ClUint64T" />
                    <Argument ParameterType="CL_IN" name="seqNum"
                    type="ClUint32T"/>
                    <Argument ParameterType="CL_IN" name="srcAddr"
                    type="ClUint32T"/>
                    <Argument ParameterType="CL_IN" name="hFlusher"
                    type="ClHandleT"/>
                    <Argument ParameterType="CL_IN" name="nRecords"
                    type="ClUint32T"/>
                    <Argument ParameterType="CL_IN" name="buffLen"
                    type="ClUint32T"/>
                    <Argument ParameterType="CL_IN" name="pBuffer"
                    type="ClUint8T" pointer="Single" lengthVar="buffLen"/>
              </Operation>
            </Group>
        </Port>            
  </Service>
</IDLSpecs>
